…
``` r
library(tidyverse)
library(cowplot)

tbl <- read_tsv(
  "ribo-profiling/rpfs.iso.tsv.gz",
  col_names = c("codon", "aa", "offset", "signal")
)

tbl
```

    ## # A tibble: 1,324 x 4
    ##    codon aa    offset signal
    ##    <chr> <chr>  <dbl>  <dbl>
    ##  1 TCA   Ser        0  66825
    ##  2 TCA   Ser       -6  46632
    ##  3 TCA   Ser       -3  46056
    ##  4 TCA   Ser       -2  45570
    ##  5 TCA   Ser       -1  46082
    ##  6 TCA   Ser        1  58346
    ##  7 TCA   Ser       -8  33891
    ##  8 TCA   Ser       -7  42053
    ##  9 TCA   Ser       -5  35769
    ## 10 TCA   Ser       -4  44854
    ## # … with 1,314 more rows
…
